riscv_cpu.vcd
$date
	Wed Jan 14 18:44:55 2026
$end
$version
	Icarus Verilog
$end
$timescale
	1s
$end
$scope module tb_cpu $end
$var wire 32 ! WriteData [31:0] $end
$var wire 1 " MemWrite $end
$var wire 32 # Instr [31:0] $end
$var wire 32 $ ALUResult [31:0] $end
$var reg 1 % clk $end
$var reg 1 & rst $end
$scope module DUT $end
$var wire 1 % clk $end
$var wire 1 & rst $end
$var wire 32 ' WriteData [31:0] $end
$var wire 32 ( ReadData [31:0] $end
$var wire 32 ) PC [31:0] $end
$var wire 1 " MemWrite $end
$var wire 32 * Instr [31:0] $end
$var wire 32 + ALUResult [31:0] $end
$scope module DATA_MEMORY $end
$var wire 1 % clk $end
$var wire 32 , rd [31:0] $end
$var wire 1 " we $end
$var wire 32 - wd [31:0] $end
$var wire 32 . addr_word [31:0] $end
$var wire 32 / a [31:0] $end
$upscope $end
$scope module INSTR $end
$var wire 32 0 rd [31:0] $end
$var wire 32 1 a [31:0] $end
$var parameter 1008 2 PATH_FILE $end
$var parameter 32 3 PC_BASE_WORD $end
$var parameter 32 4 WIDTH_WORD $end
$upscope $end
$scope module SYSTEM $end
$var wire 32 5 Instr [31:0] $end
$var wire 32 6 ReadData [31:0] $end
$var wire 1 % clk $end
$var wire 1 & rst $end
$var wire 7 7 op [6:0] $end
$var wire 1 8 funct7_5 $end
$var wire 3 9 funct3 [2:0] $end
$var wire 1 : Zero $end
$var wire 32 ; WriteData [31:0] $end
$var wire 1 < ResultSrc $end
$var wire 1 = RegWrite $end
$var wire 1 > PCSrc $end
$var wire 32 ? PC [31:0] $end
$var wire 1 " MemWrite $end
$var wire 2 @ ImmSrc [1:0] $end
$var wire 1 A ALUSrc $end
$var wire 32 B ALUResult [31:0] $end
$var wire 3 C ALUControl [2:0] $end
$scope module CONTROL_UNIT $end
$var wire 1 > PCSrc $end
$var wire 3 D funct3 [2:0] $end
$var wire 1 8 funct7_5 $end
$var wire 7 E op [6:0] $end
$var wire 1 : Zero $end
$var wire 1 < ResultSrc $end
$var wire 1 = RegWrite $end
$var wire 1 " MemWrite $end
$var wire 2 F ImmSrc [1:0] $end
$var wire 1 G Branch $end
$var wire 1 A ALUSrc $end
$var wire 2 H ALUOp [1:0] $end
$var wire 3 I ALUControl [2:0] $end
$scope module ALUDecoder $end
$var wire 3 J funct3 [2:0] $end
$var wire 1 8 funct7_5 $end
$var wire 1 K op_5 $end
$var wire 2 L ALUOp [1:0] $end
$var reg 3 M ALUControl [2:0] $end
$upscope $end
$scope module MainDecoder $end
$var wire 7 N op [6:0] $end
$var wire 1 < ResultSrc $end
$var wire 1 = RegWrite $end
$var wire 1 " MemWrite $end
$var wire 2 O ImmSrc [1:0] $end
$var wire 1 G Branch $end
$var wire 1 A ALUSrc $end
$var wire 2 P ALUOp [1:0] $end
$var reg 9 Q instruction [8:0] $end
$upscope $end
$upscope $end
$scope module DATAPATH $end
$var wire 3 R ALUControl [2:0] $end
$var wire 1 A ALUSrc $end
$var wire 2 S ImmSrc [1:0] $end
$var wire 32 T Instr [31:0] $end
$var wire 1 > PCSrc $end
$var wire 32 U ReadData [31:0] $end
$var wire 1 = RegWrite $end
$var wire 1 < ResultSrc $end
$var wire 1 % clk $end
$var wire 1 & rst $end
$var wire 1 : Zero $end
$var wire 32 V WriteData [31:0] $end
$var wire 32 W SrcB [31:0] $end
$var wire 32 X SrcA [31:0] $end
$var wire 32 Y Result [31:0] $end
$var wire 32 Z PCTarget [31:0] $end
$var wire 32 [ PCPlus4 [31:0] $end
$var wire 32 \ PCNext [31:0] $end
$var wire 32 ] PC [31:0] $end
$var wire 32 ^ ImmExt [31:0] $end
$var wire 32 _ ALUResult [31:0] $end
$scope module ALU $end
$var wire 3 ` alu_ctrl [2:0] $end
$var wire 32 a b [31:0] $end
$var wire 32 b a [31:0] $end
$var reg 32 c result [31:0] $end
$var reg 1 : zero $end
$upscope $end
$scope module ALU_SRC_MUX $end
$var wire 1 A sel $end
$var wire 32 d y [31:0] $end
$var wire 32 e d1 [31:0] $end
$var wire 32 f d0 [31:0] $end
$upscope $end
$scope module EXTEND_UNIT $end
$var wire 2 g ImmSrc [1:0] $end
$var wire 32 h Instr [31:0] $end
$var wire 32 i ImmExt [31:0] $end
$var reg 32 j ImmExtReg [31:0] $end
$upscope $end
$scope module PC_ADDER $end
$var wire 32 k b [31:0] $end
$var wire 32 l y [31:0] $end
$var wire 32 m a [31:0] $end
$upscope $end
$scope module PC_MUX $end
$var wire 32 n d0 [31:0] $end
$var wire 1 > sel $end
$var wire 32 o y [31:0] $end
$var wire 32 p d1 [31:0] $end
$upscope $end
$scope module PC_REG $end
$var wire 1 % clk $end
$var wire 32 q pc_next [31:0] $end
$var wire 1 & rst $end
$var parameter 32 r PC_RESET $end
$var reg 32 s pc [31:0] $end
$upscope $end
$scope module PC_TARGET_ADDER $end
$var wire 32 t a [31:0] $end
$var wire 32 u b [31:0] $end
$var wire 32 v y [31:0] $end
$upscope $end
$scope module REGISTER_FILE $end
$var wire 1 % clk $end
$var wire 5 w ra1 [4:0] $end
$var wire 5 x ra2 [4:0] $end
$var wire 1 & rst $end
$var wire 5 y wa3 [4:0] $end
$var wire 1 = we3 $end
$var wire 32 z wd3 [31:0] $end
$var wire 32 { rd2 [31:0] $end
$var wire 32 | rd1 [31:0] $end
$var integer 32 } i [31:0] $end
$upscope $end
$scope module RESULT_MUX $end
$var wire 32 ~ d0 [31:0] $end
$var wire 32 !" d1 [31:0] $end
$var wire 1 < sel $end
$var wire 32 "" y [31:0] $end
$upscope $end
$upscope $end
$upscope $end
$upscope $end
$upscope $end
$enddefinitions $end
$comment Show the parameter values. $end
$dumpall
b1000000000000 r
b1111111111111111 4
b10000000000 3
b10000110011101000101111010101010111001101100101011100100111001100101111011001100110010101101000011100110110010100101111010001000110111101100011011101010110110101100101011011100111010001110011001011110111010101101110011010010110011001100101011010010010111101100011011010010110010001101001011001110110100101110100011000010110110000101111011001100110010101110010011011100110000101101110011001000110000100101111011001010110111001110100011100100110010101100111011000010111001100101111010101000111001001100001011000100110000101101100011010000110111100101111010011010110100101100011011100100110111101100001011100100111000101110101011010010111010001100101011101000111010101110010011000010101111101010010010010010101001101000011001011010101011001011111010100110110100101101110011001110110110001100101001011010100001101111001011000110110110001100101001011110110110101100001011000110110100001101001011011100110010101011111011011000110000101101110011001110111010101100001011001110110010100101110011101000111100001110100 2
$end
#0
$dumpvars
bx ""
bx !"
bx ~
bx }
bx |
bx {
bx z
b110 y
b11100 x
b1001 w
b11111100110 v
b11111111111111111111011111100110 u
b1000000000000 t
b1000000000000 s
b1000000000100 q
b11111100110 p
b1000000000100 o
b1000000000100 n
b1000000000000 m
b1000000000100 l
b100 k
b11111111111111111111011111100110 j
b11111111111111111111011111100110 i
b11111111110001001010001100000011 h
b10 g
bx f
b11111111111111111111011111100110 e
bx d
bx c
bx b
bx a
b0 `
bx _
b11111111111111111111011111100110 ^
b1000000000000 ]
b1000000000100 \
b1000000000100 [
b11111100110 Z
bx Y
bx X
bx W
bx V
bx U
b11111111110001001010001100000011 T
b10 S
b0 R
b110001000 Q
b0 P
b10 O
b11 N
b0 M
b0 L
0K
b10 J
b0 I
b0 H
0G
b10 F
b11 E
b10 D
b0 C
bx B
0A
b10 @
b1000000000000 ?
0>
1=
1<
bx ;
0:
b10 9
18
b11 7
bx 6
b11111111110001001010001100000011 5
b1000000000000 1
b11111111110001001010001100000011 0
bx /
b0xxxxxxxxxxxxxxxxxxxxxxxxxxxxxx .
bx -
bx ,
bx +
b11111111110001001010001100000011 *
b1000000000000 )
bx (
bx '
1&
0%
bx $
b11111111110001001010001100000011 #
0"
bx !
$end
#10
1%
#20
0%
0&
#30
b0 W
b0 a
b0 d
b11 @
b11 F
b11 O
b11 S
b11 g
1A
1"
0<
1K
b111110000 Q
b100011 7
b100011 E
b100011 N
08
b110 x
b1000 y
b0 ^
b0 e
b0 i
b0 j
b0 u
b1000000001000 \
b1000000001000 o
b1000000001000 q
b11001001010010000100011 #
b11001001010010000100011 *
b11001001010010000100011 0
b11001001010010000100011 5
b11001001010010000100011 T
b11001001010010000100011 h
b1000000000100 Z
b1000000000100 p
b1000000000100 v
b1000000001000 [
b1000000001000 l
b1000000001000 n
b1000000000100 )
b1000000000100 1
b1000000000100 ?
b1000000000100 ]
b1000000000100 m
b1000000000100 s
b1000000000100 t
1%
#40
0%
#50
b110 ^
b110 e
b110 i
b110 j
b110 u
bx W
bx a
bx d
b11 C
b11 I
b11 M
b11 R
b11 `
b0 @
b0 F
b0 O
b0 S
b0 g
0A
0"
1<
b10 H
b10 L
b10 P
b100001010 Q
b110011 7
b110011 E
b110011 N
b110 9
b110 D
b110 J
b101 w
b100 y
b1000000001100 \
b1000000001100 o
b1000000001100 q
b11000101110001000110011 #
b11000101110001000110011 *
b11000101110001000110011 0
b11000101110001000110011 5
b11000101110001000110011 T
b11000101110001000110011 h
b1000000001110 Z
b1000000001110 p
b1000000001110 v
b1000000001100 [
b1000000001100 l
b1000000001100 n
b1000000001000 )
b1000000001000 1
b1000000001000 ?
b1000000001000 ]
b1000000001000 m
b1000000001000 s
b1000000001000 t
1%
#60
0%
#70
b0 W
b0 a
b0 d
0=
b11 @
b11 F
b11 O
b11 S
b11 g
1A
0<
1G
b1 H
b1 L
b1 P
b11100101 Q
b1 C
b1 I
b1 M
b1 R
b1 `
b1100011 7
b1100011 E
b1100011 N
b0 9
b0 D
b0 J
18
b100 w
b100 x
b10101 y
b0 ^
b0 e
b0 i
b0 j
b0 u
b1000000010000 \
b1000000010000 o
b1000000010000 q
b11111110010000100000101011100011 #
b11111110010000100000101011100011 *
b11111110010000100000101011100011 0
b11111110010000100000101011100011 5
b11111110010000100000101011100011 T
b11111110010000100000101011100011 h
b1000000001100 Z
b1000000001100 p
b1000000001100 v
b1000000010000 [
b1000000010000 l
b1000000010000 n
b1000000001100 )
b1000000001100 1
b1000000001100 ?
b1000000001100 ]
b1000000001100 m
b1000000001100 s
b1000000001100 t
1%
#80
0%
#90
bx ^
bx e
bx i
bx j
bx u
bx W
bx a
bx d
b0 C
b0 I
b0 M
b0 R
b0 `
b0 @
b0 F
b0 O
b0 S
b0 g
0A
0G
b0 H
b0 L
b0 P
xK
b0 Q
bx 7
bx E
bx N
bx 9
bx D
bx J
x8
bx w
bx x
bx y
b1000000010100 \
b1000000010100 o
b1000000010100 q
bx #
bx *
bx 0
bx 5
bx T
bx h
bx Z
bx p
bx v
b1000000010100 [
b1000000010100 l
b1000000010100 n
b1000000010000 )
b1000000010000 1
b1000000010000 ?
b1000000010000 ]
b1000000010000 m
b1000000010000 s
b1000000010000 t
1%
#100
0%
#110
b1000000011000 \
b1000000011000 o
b1000000011000 q
b1000000011000 [
b1000000011000 l
b1000000011000 n
b1000000010100 )
b1000000010100 1
b1000000010100 ?
b1000000010100 ]
b1000000010100 m
b1000000010100 s
b1000000010100 t
1%
#120
0%
#130
b1000000011100 \
b1000000011100 o
b1000000011100 q
b1000000011100 [
b1000000011100 l
b1000000011100 n
b1000000011000 )
b1000000011000 1
b1000000011000 ?
b1000000011000 ]
b1000000011000 m
b1000000011000 s
b1000000011000 t
1%
#140
0%
#150
b1000000100000 \
b1000000100000 o
b1000000100000 q
b1000000100000 [
b1000000100000 l
b1000000100000 n
b1000000011100 )
b1000000011100 1
b1000000011100 ?
b1000000011100 ]
b1000000011100 m
b1000000011100 s
b1000000011100 t
1%
#160
0%
#170
b1000000100100 \
b1000000100100 o
b1000000100100 q
b1000000100100 [
b1000000100100 l
b1000000100100 n
b1000000100000 )
b1000000100000 1
b1000000100000 ?
b1000000100000 ]
b1000000100000 m
b1000000100000 s
b1000000100000 t
1%
#180
0%
#190
b1000000101000 \
b1000000101000 o
b1000000101000 q
b1000000101000 [
b1000000101000 l
b1000000101000 n
b1000000100100 )
b1000000100100 1
b1000000100100 ?
b1000000100100 ]
b1000000100100 m
b1000000100100 s
b1000000100100 t
1%
#200
0%
#210
b1000000101100 \
b1000000101100 o
b1000000101100 q
b1000000101100 [
b1000000101100 l
b1000000101100 n
b1000000101000 )
b1000000101000 1
b1000000101000 ?
b1000000101000 ]
b1000000101000 m
b1000000101000 s
b1000000101000 t
1%
#220
0%
#230
b1000000110000 \
b1000000110000 o
b1000000110000 q
b1000000110000 [
b1000000110000 l
b1000000110000 n
b1000000101100 )
b1000000101100 1
b1000000101100 ?
b1000000101100 ]
b1000000101100 m
b1000000101100 s
b1000000101100 t
1%
#240
0%
#250
b1000000110100 \
b1000000110100 o
b1000000110100 q
b1000000110100 [
b1000000110100 l
b1000000110100 n
b1000000110000 )
b1000000110000 1
b1000000110000 ?
b1000000110000 ]
b1000000110000 m
b1000000110000 s
b1000000110000 t
1%
#260
0%
#270
b1000000111000 \
b1000000111000 o
b1000000111000 q
b1000000111000 [
b1000000111000 l
b1000000111000 n
b1000000110100 )
b1000000110100 1
b1000000110100 ?
b1000000110100 ]
b1000000110100 m
b1000000110100 s
b1000000110100 t
1%
#280
0%
#290
b1000000111100 \
b1000000111100 o
b1000000111100 q
b1000000111100 [
b1000000111100 l
b1000000111100 n
b1000000111000 )
b1000000111000 1
b1000000111000 ?
b1000000111000 ]
b1000000111000 m
b1000000111000 s
b1000000111000 t
1%
#300
0%
#310
b1000001000000 \
b1000001000000 o
b1000001000000 q
b1000001000000 [
b1000001000000 l
b1000001000000 n
b1000000111100 )
b1000000111100 1
b1000000111100 ?
b1000000111100 ]
b1000000111100 m
b1000000111100 s
b1000000111100 t
1%
#320
0%
#330
b1000001000100 \
b1000001000100 o
b1000001000100 q
b1000001000100 [
b1000001000100 l
b1000001000100 n
b1000001000000 )
b1000001000000 1
b1000001000000 ?
b1000001000000 ]
b1000001000000 m
b1000001000000 s
b1000001000000 t
1%
#340
0%
#350
b1000001001000 \
b1000001001000 o
b1000001001000 q
b1000001001000 [
b1000001001000 l
b1000001001000 n
b1000001000100 )
b1000001000100 1
b1000001000100 ?
b1000001000100 ]
b1000001000100 m
b1000001000100 s
b1000001000100 t
1%
#360
0%
#370
b1000001001100 \
b1000001001100 o
b1000001001100 q
b1000001001100 [
b1000001001100 l
b1000001001100 n
b1000001001000 )
b1000001001000 1
b1000001001000 ?
b1000001001000 ]
b1000001001000 m
b1000001001000 s
b1000001001000 t
1%
#380
0%
#390
b1000001010000 \
b1000001010000 o
b1000001010000 q
b1000001010000 [
b1000001010000 l
b1000001010000 n
b1000001001100 )
b1000001001100 1
b1000001001100 ?
b1000001001100 ]
b1000001001100 m
b1000001001100 s
b1000001001100 t
1%
#400
0%
#410
b1000001010100 \
b1000001010100 o
b1000001010100 q
b1000001010100 [
b1000001010100 l
b1000001010100 n
b1000001010000 )
b1000001010000 1
b1000001010000 ?
b1000001010000 ]
b1000001010000 m
b1000001010000 s
b1000001010000 t
1%
#420
0%
#430
b1000001011000 \
b1000001011000 o
b1000001011000 q
b1000001011000 [
b1000001011000 l
b1000001011000 n
b1000001010100 )
b1000001010100 1
b1000001010100 ?
b1000001010100 ]
b1000001010100 m
b1000001010100 s
b1000001010100 t
1%
#440
0%
#450
b1000001011100 \
b1000001011100 o
b1000001011100 q
b1000001011100 [
b1000001011100 l
b1000001011100 n
b1000001011000 )
b1000001011000 1
b1000001011000 ?
b1000001011000 ]
b1000001011000 m
b1000001011000 s
b1000001011000 t
1%
#460
0%
#470
b1000001100000 \
b1000001100000 o
b1000001100000 q
b1000001100000 [
b1000001100000 l
b1000001100000 n
b1000001011100 )
b1000001011100 1
b1000001011100 ?
b1000001011100 ]
b1000001011100 m
b1000001011100 s
b1000001011100 t
1%
#480
0%
#490
b1000001100100 \
b1000001100100 o
b1000001100100 q
b1000001100100 [
b1000001100100 l
b1000001100100 n
b1000001100000 )
b1000001100000 1
b1000001100000 ?
b1000001100000 ]
b1000001100000 m
b1000001100000 s
b1000001100000 t
1%
#500
0%
#510
b1000001101000 \
b1000001101000 o
b1000001101000 q
b1000001101000 [
b1000001101000 l
b1000001101000 n
b1000001100100 )
b1000001100100 1
b1000001100100 ?
b1000001100100 ]
b1000001100100 m
b1000001100100 s
b1000001100100 t
1%
#520
0%
#530
b1000001101100 \
b1000001101100 o
b1000001101100 q
b1000001101100 [
b1000001101100 l
b1000001101100 n
b1000001101000 )
b1000001101000 1
b1000001101000 ?
b1000001101000 ]
b1000001101000 m
b1000001101000 s
b1000001101000 t
1%
#540
0%
#550
b1000001110000 \
b1000001110000 o
b1000001110000 q
b1000001110000 [
b1000001110000 l
b1000001110000 n
b1000001101100 )
b1000001101100 1
b1000001101100 ?
b1000001101100 ]
b1000001101100 m
b1000001101100 s
b1000001101100 t
1%
#560
0%
#570
b1000001110100 \
b1000001110100 o
b1000001110100 q
b1000001110100 [
b1000001110100 l
b1000001110100 n
b1000001110000 )
b1000001110000 1
b1000001110000 ?
b1000001110000 ]
b1000001110000 m
b1000001110000 s
b1000001110000 t
1%
#580
0%
#590
b1000001111000 \
b1000001111000 o
b1000001111000 q
b1000001111000 [
b1000001111000 l
b1000001111000 n
b1000001110100 )
b1000001110100 1
b1000001110100 ?
b1000001110100 ]
b1000001110100 m
b1000001110100 s
b1000001110100 t
1%
#600
0%
#610
b1000001111100 \
b1000001111100 o
b1000001111100 q
b1000001111100 [
b1000001111100 l
b1000001111100 n
b1000001111000 )
b1000001111000 1
b1000001111000 ?
b1000001111000 ]
b1000001111000 m
b1000001111000 s
b1000001111000 t
1%
#620
0%
#630
b1000010000000 \
b1000010000000 o
b1000010000000 q
b1000010000000 [
b1000010000000 l
b1000010000000 n
b1000001111100 )
b1000001111100 1
b1000001111100 ?
b1000001111100 ]
b1000001111100 m
b1000001111100 s
b1000001111100 t
1%
#640
0%
#650
b1000010000100 \
b1000010000100 o
b1000010000100 q
b1000010000100 [
b1000010000100 l
b1000010000100 n
b1000010000000 )
b1000010000000 1
b1000010000000 ?
b1000010000000 ]
b1000010000000 m
b1000010000000 s
b1000010000000 t
1%
#660
0%
#670
b1000010001000 \
b1000010001000 o
b1000010001000 q
b1000010001000 [
b1000010001000 l
b1000010001000 n
b1000010000100 )
b1000010000100 1
b1000010000100 ?
b1000010000100 ]
b1000010000100 m
b1000010000100 s
b1000010000100 t
1%
#680
0%
#690
b1000010001100 \
b1000010001100 o
b1000010001100 q
b1000010001100 [
b1000010001100 l
b1000010001100 n
b1000010001000 )
b1000010001000 1
b1000010001000 ?
b1000010001000 ]
b1000010001000 m
b1000010001000 s
b1000010001000 t
1%
#700
0%
#710
b1000010010000 \
b1000010010000 o
b1000010010000 q
b1000010010000 [
b1000010010000 l
b1000010010000 n
b1000010001100 )
b1000010001100 1
b1000010001100 ?
b1000010001100 ]
b1000010001100 m
b1000010001100 s
b1000010001100 t
1%
#720
0%
#730
b1000010010100 \
b1000010010100 o
b1000010010100 q
b1000010010100 [
b1000010010100 l
b1000010010100 n
b1000010010000 )
b1000010010000 1
b1000010010000 ?
b1000010010000 ]
b1000010010000 m
b1000010010000 s
b1000010010000 t
1%
#740
0%
#750
b1000010011000 \
b1000010011000 o
b1000010011000 q
b1000010011000 [
b1000010011000 l
b1000010011000 n
b1000010010100 )
b1000010010100 1
b1000010010100 ?
b1000010010100 ]
b1000010010100 m
b1000010010100 s
b1000010010100 t
1%
#760
0%
#770
b1000010011100 \
b1000010011100 o
b1000010011100 q
b1000010011100 [
b1000010011100 l
b1000010011100 n
b1000010011000 )
b1000010011000 1
b1000010011000 ?
b1000010011000 ]
b1000010011000 m
b1000010011000 s
b1000010011000 t
1%
#780
0%
#790
b1000010100000 \
b1000010100000 o
b1000010100000 q
b1000010100000 [
b1000010100000 l
b1000010100000 n
b1000010011100 )
b1000010011100 1
b1000010011100 ?
b1000010011100 ]
b1000010011100 m
b1000010011100 s
b1000010011100 t
1%
#800
0%
#810
b1000010100100 \
b1000010100100 o
b1000010100100 q
b1000010100100 [
b1000010100100 l
b1000010100100 n
b1000010100000 )
b1000010100000 1
b1000010100000 ?
b1000010100000 ]
b1000010100000 m
b1000010100000 s
b1000010100000 t
1%
#820
0%
#830
b1000010101000 \
b1000010101000 o
b1000010101000 q
b1000010101000 [
b1000010101000 l
b1000010101000 n
b1000010100100 )
b1000010100100 1
b1000010100100 ?
b1000010100100 ]
b1000010100100 m
b1000010100100 s
b1000010100100 t
1%
#840
0%
#850
b1000010101100 \
b1000010101100 o
b1000010101100 q
b1000010101100 [
b1000010101100 l
b1000010101100 n
b1000010101000 )
b1000010101000 1
b1000010101000 ?
b1000010101000 ]
b1000010101000 m
b1000010101000 s
b1000010101000 t
1%
#860
0%
#870
b1000010110000 \
b1000010110000 o
b1000010110000 q
b1000010110000 [
b1000010110000 l
b1000010110000 n
b1000010101100 )
b1000010101100 1
b1000010101100 ?
b1000010101100 ]
b1000010101100 m
b1000010101100 s
b1000010101100 t
1%
#880
0%
#890
b1000010110100 \
b1000010110100 o
b1000010110100 q
b1000010110100 [
b1000010110100 l
b1000010110100 n
b1000010110000 )
b1000010110000 1
b1000010110000 ?
b1000010110000 ]
b1000010110000 m
b1000010110000 s
b1000010110000 t
1%
#900
0%
#910
b1000010111000 \
b1000010111000 o
b1000010111000 q
b1000010111000 [
b1000010111000 l
b1000010111000 n
b1000010110100 )
b1000010110100 1
b1000010110100 ?
b1000010110100 ]
b1000010110100 m
b1000010110100 s
b1000010110100 t
1%
#920
0%
#930
b1000010111100 \
b1000010111100 o
b1000010111100 q
b1000010111100 [
b1000010111100 l
b1000010111100 n
b1000010111000 )
b1000010111000 1
b1000010111000 ?
b1000010111000 ]
b1000010111000 m
b1000010111000 s
b1000010111000 t
1%
#940
0%
#950
b1000011000000 \
b1000011000000 o
b1000011000000 q
b1000011000000 [
b1000011000000 l
b1000011000000 n
b1000010111100 )
b1000010111100 1
b1000010111100 ?
b1000010111100 ]
b1000010111100 m
b1000010111100 s
b1000010111100 t
1%
#960
0%
#970
b1000011000100 \
b1000011000100 o
b1000011000100 q
b1000011000100 [
b1000011000100 l
b1000011000100 n
b1000011000000 )
b1000011000000 1
b1000011000000 ?
b1000011000000 ]
b1000011000000 m
b1000011000000 s
b1000011000000 t
1%
#980
0%
#990
b1000011001000 \
b1000011001000 o
b1000011001000 q
b1000011001000 [
b1000011001000 l
b1000011001000 n
b1000011000100 )
b1000011000100 1
b1000011000100 ?
b1000011000100 ]
b1000011000100 m
b1000011000100 s
b1000011000100 t
1%
#1000
0%
#1010
b1000011001100 \
b1000011001100 o
b1000011001100 q
b1000011001100 [
b1000011001100 l
b1000011001100 n
b1000011001000 )
b1000011001000 1
b1000011001000 ?
b1000011001000 ]
b1000011001000 m
b1000011001000 s
b1000011001000 t
1%
