riscv_cpu.vcd
$date
	Wed Jan 14 20:47:51 2026
$end
$version
	Icarus Verilog
$end
$timescale
	1s
$end
$scope module tb_cpu $end
$var wire 32 ! WriteData [31:0] $end
$var wire 1 " MemWrite $end
$var wire 32 # Instr [31:0] $end
$var wire 32 $ ALUResult [31:0] $end
$var reg 1 % clk $end
$var reg 1 & rst $end
$scope module DUT $end
$var wire 1 % clk $end
$var wire 1 & rst $end
$var wire 32 ' WriteData [31:0] $end
$var wire 32 ( ReadData [31:0] $end
$var wire 32 ) PC [31:0] $end
$var wire 1 " MemWrite $end
$var wire 32 * Instr [31:0] $end
$var wire 32 + ALUResult [31:0] $end
$scope module DATA_MEMORY $end
$var wire 1 % clk $end
$var wire 32 , rd [31:0] $end
$var wire 1 " we $end
$var wire 32 - wd [31:0] $end
$var wire 32 . addr_word [31:0] $end
$var wire 32 / a [31:0] $end
$upscope $end
$scope module INSTR $end
$var wire 32 0 rd [31:0] $end
$var wire 32 1 a [31:0] $end
$var parameter 1008 2 PATH_FILE $end
$var parameter 32 3 PC_BASE_WORD $end
$var parameter 32 4 WIDTH_WORD $end
$upscope $end
$scope module SYSTEM $end
$var wire 32 5 Instr [31:0] $end
$var wire 32 6 ReadData [31:0] $end
$var wire 1 % clk $end
$var wire 1 & rst $end
$var wire 7 7 op [6:0] $end
$var wire 1 8 funct7_5 $end
$var wire 3 9 funct3 [2:0] $end
$var wire 1 : Zero $end
$var wire 32 ; WriteData [31:0] $end
$var wire 1 < ResultSrc $end
$var wire 1 = RegWrite $end
$var wire 1 > PCSrc $end
$var wire 32 ? PC [31:0] $end
$var wire 1 " MemWrite $end
$var wire 2 @ ImmSrc [1:0] $end
$var wire 1 A ALUSrc $end
$var wire 32 B ALUResult [31:0] $end
$var wire 3 C ALUControl [2:0] $end
$scope module CONTROL_UNIT $end
$var wire 1 > PCSrc $end
$var wire 3 D funct3 [2:0] $end
$var wire 1 8 funct7_5 $end
$var wire 7 E op [6:0] $end
$var wire 1 : Zero $end
$var wire 1 < ResultSrc $end
$var wire 1 = RegWrite $end
$var wire 1 " MemWrite $end
$var wire 2 F ImmSrc [1:0] $end
$var wire 1 G Branch $end
$var wire 1 A ALUSrc $end
$var wire 2 H ALUOp [1:0] $end
$var wire 3 I ALUControl [2:0] $end
$scope module ALUDecoder $end
$var wire 3 J funct3 [2:0] $end
$var wire 1 8 funct7_5 $end
$var wire 1 K op_5 $end
$var wire 2 L ALUOp [1:0] $end
$var reg 3 M ALUControl [2:0] $end
$upscope $end
$scope module MainDecoder $end
$var wire 7 N op [6:0] $end
$var wire 1 < ResultSrc $end
$var wire 1 = RegWrite $end
$var wire 1 " MemWrite $end
$var wire 2 O ImmSrc [1:0] $end
$var wire 1 G Branch $end
$var wire 1 A ALUSrc $end
$var wire 2 P ALUOp [1:0] $end
$var reg 9 Q instruction [8:0] $end
$upscope $end
$upscope $end
$scope module DATAPATH $end
$var wire 3 R ALUControl [2:0] $end
$var wire 1 A ALUSrc $end
$var wire 2 S ImmSrc [1:0] $end
$var wire 32 T Instr [31:0] $end
$var wire 1 > PCSrc $end
$var wire 32 U ReadData [31:0] $end
$var wire 1 = RegWrite $end
$var wire 1 < ResultSrc $end
$var wire 1 % clk $end
$var wire 1 & rst $end
$var wire 1 : Zero $end
$var wire 32 V WriteData [31:0] $end
$var wire 32 W SrcB [31:0] $end
$var wire 32 X SrcA [31:0] $end
$var wire 32 Y Result [31:0] $end
$var wire 32 Z PCTarget [31:0] $end
$var wire 32 [ PCPlus4 [31:0] $end
$var wire 32 \ PCNext [31:0] $end
$var wire 32 ] PC [31:0] $end
$var wire 32 ^ ImmExt [31:0] $end
$var wire 32 _ ALUResult [31:0] $end
$scope module ALU $end
$var wire 3 ` alu_ctrl [2:0] $end
$var wire 32 a b [31:0] $end
$var wire 32 b a [31:0] $end
$var reg 32 c result [31:0] $end
$var reg 1 : zero $end
$upscope $end
$scope module ALU_SRC_MUX $end
$var wire 1 A sel $end
$var wire 32 d y [31:0] $end
$var wire 32 e d1 [31:0] $end
$var wire 32 f d0 [31:0] $end
$upscope $end
$scope module EXTEND_UNIT $end
$var wire 2 g ImmSrc [1:0] $end
$var wire 32 h Instr [31:0] $end
$var wire 32 i ImmExt [31:0] $end
$var reg 32 j ImmExtReg [31:0] $end
$upscope $end
$scope module PC_ADDER $end
$var wire 32 k b [31:0] $end
$var wire 32 l y [31:0] $end
$var wire 32 m a [31:0] $end
$upscope $end
$scope module PC_MUX $end
$var wire 32 n d0 [31:0] $end
$var wire 1 > sel $end
$var wire 32 o y [31:0] $end
$var wire 32 p d1 [31:0] $end
$upscope $end
$scope module PC_REG $end
$var wire 1 % clk $end
$var wire 32 q pc_next [31:0] $end
$var wire 1 & rst $end
$var parameter 32 r PC_RESET $end
$var reg 32 s pc [31:0] $end
$upscope $end
$scope module PC_TARGET_ADDER $end
$var wire 32 t a [31:0] $end
$var wire 32 u b [31:0] $end
$var wire 32 v y [31:0] $end
$upscope $end
$scope module REGISTER_FILE $end
$var wire 1 % clk $end
$var wire 5 w ra1 [4:0] $end
$var wire 5 x ra2 [4:0] $end
$var wire 1 & rst $end
$var wire 5 y wa3 [4:0] $end
$var wire 1 = we3 $end
$var wire 32 z wd3 [31:0] $end
$var wire 32 { rd2 [31:0] $end
$var wire 32 | rd1 [31:0] $end
$var integer 32 } i [31:0] $end
$upscope $end
$scope module RESULT_MUX $end
$var wire 32 ~ d0 [31:0] $end
$var wire 32 !" d1 [31:0] $end
$var wire 1 < sel $end
$var wire 32 "" y [31:0] $end
$upscope $end
$upscope $end
$upscope $end
$upscope $end
$upscope $end
$enddefinitions $end
$comment Show the parameter values. $end
$dumpall
b1000000000000 r
b1111111111111111 4
b10000000000 3
b10000110011101000101111010101010111001101100101011100100111001100101111011001100110010101101000011100110110010100101111010001000110111101100011011101010110110101100101011011100111010001110011001011110111010101101110011010010110011001100101011010010010111101100011011010010110010001101001011001110110100101110100011000010110110000101111011001100110010101110010011011100110000101101110011001000110000100101111011001010110111001110100011100100110010101100111011000010111001100101111010101000111001001100001011000100110000101101100011010000110111100101111010011010110100101100011011100100110111101100001011100100111000101110101011010010111010001100101011101000111010101110010011000010101111101010010010010010101001101000011001011010101011001011111010100110110100101101110011001110110110001100101001011010100001101111001011000110110110001100101001011110110110101100001011000110110100001101001011011100110010101011111011011000110000101101110011001110111010101100001011001110110010100101110011101000111100001110100 2
$end
#0
$dumpvars
bx ""
bx !"
bx ~
bx }
bx |
bx {
bx z
b110 y
b11100 x
b1001 w
b111111111100 v
b11111111111111111111111111111100 u
b1000000000000 t
b1000000000000 s
b1000000000100 q
b111111111100 p
b1000000000100 o
b1000000000100 n
b1000000000000 m
b1000000000100 l
b100 k
b11111111111111111111111111111100 j
b11111111111111111111111111111100 i
b11111111110001001010001100000011 h
b0 g
bx f
b11111111111111111111111111111100 e
b11111111111111111111111111111100 d
bx c
bx b
b11111111111111111111111111111100 a
b0 `
bx _
b11111111111111111111111111111100 ^
b1000000000000 ]
b1000000000100 \
b1000000000100 [
b111111111100 Z
bx Y
bx X
b11111111111111111111111111111100 W
bx V
bx U
b11111111110001001010001100000011 T
b0 S
b0 R
b100101000 Q
b0 P
b0 O
b11 N
b0 M
b0 L
0K
b10 J
b0 I
b0 H
0G
b0 F
b11 E
b10 D
b0 C
bx B
1A
b0 @
b1000000000000 ?
0>
1=
1<
bx ;
0:
b10 9
18
b11 7
bx 6
b11111111110001001010001100000011 5
b1000000000000 1
b11111111110001001010001100000011 0
bx /
b0xxxxxxxxxxxxxxxxxxxxxxxxxxxxxx .
bx -
bx ,
bx +
b11111111110001001010001100000011 *
b1000000000000 )
bx (
bx '
1&
0%
bx $
b11111111110001001010001100000011 #
0"
bx !
$end
#10
b1010 Y
b1010 z
b1010 ""
b1010 (
b1010 ,
b1010 6
b1010 U
b1010 !"
b100000000000 .
b10000000000000 $
b10000000000000 +
b10000000000000 /
b10000000000000 B
b10000000000000 _
b10000000000000 c
b10000000000000 ~
b0 !
b0 '
b0 -
b0 ;
b0 V
b0 f
b0 {
b10000000000100 X
b10000000000100 b
b10000000000100 |
b100000 }
1%
#20
0%
0&
#30
bx (
bx ,
bx 6
bx U
bx !"
b100000000011 .
b10000000001100 $
b10000000001100 +
b10000000001100 /
b10000000001100 B
b10000000001100 _
b10000000001100 c
b10000000001100 ~
b10000000001100 Y
b10000000001100 z
b10000000001100 ""
0=
b1 @
b1 F
b1 O
b1 S
b1 g
1"
0<
1K
b1110000 Q
b1010 !
b1010 '
b1010 -
b1010 ;
b1010 V
b1010 f
b1010 {
b1000 W
b1000 a
b1000 d
b100011 7
b100011 E
b100011 N
08
b110 x
b1000 y
b1000 ^
b1000 e
b1000 i
b1000 j
b1000 u
b1000000001000 \
b1000000001000 o
b1000000001000 q
b11001001010010000100011 #
b11001001010010000100011 *
b11001001010010000100011 0
b11001001010010000100011 5
b11001001010010000100011 T
b11001001010010000100011 h
b1000000001100 Z
b1000000001100 p
b1000000001100 v
b1000000001000 [
b1000000001000 l
b1000000001000 n
b1000000000100 )
b1000000000100 1
b1000000000100 ?
b1000000000100 ]
b1000000000100 m
b1000000000100 s
b1000000000100 t
1%
#40
0%
#50
b1110 Y
b1110 z
b1110 ""
b11 .
b1110 $
b1110 +
b1110 /
b1110 B
b1110 _
b1110 c
b1110 ~
b11 C
b11 I
b11 M
b11 R
b11 `
1=
b0 @
b0 F
b0 O
b0 S
b0 g
0A
0"
b10 H
b10 L
b10 P
b100000010 Q
b110 X
b110 b
b110 |
b1010 W
b1010 a
b1010 d
b110011 7
b110011 E
b110011 N
b110 9
b110 D
b110 J
b101 w
b100 y
b110 ^
b110 e
b110 i
b110 j
b110 u
b1000000001100 \
b1000000001100 o
b1000000001100 q
b11000101110001000110011 #
b11000101110001000110011 *
b11000101110001000110011 0
b11000101110001000110011 5
b11000101110001000110011 T
b11000101110001000110011 h
bx (
bx ,
bx 6
bx U
bx !"
b1000000001110 Z
b1000000001110 p
b1000000001110 v
b1000000001100 [
b1000000001100 l
b1000000001100 n
b1000000001000 )
b1000000001000 1
b1000000001000 ?
b1000000001000 ]
b1000000001000 m
b1000000001000 s
b1000000001000 t
1%
#60
0%
#70
1>
b0 Y
b0 z
b0 ""
b0 .
1:
b0 $
b0 +
b0 /
b0 B
b0 _
b0 c
b0 ~
0=
b10 @
b10 F
b10 O
b10 S
b10 g
1G
b1 H
b1 L
b1 P
b1110 W
b1110 a
b1110 d
b10000101 Q
b1 C
b1 I
b1 M
b1 R
b1 `
b1110 X
b1110 b
b1110 |
b1110 !
b1110 '
b1110 -
b1110 ;
b1110 V
b1110 f
b1110 {
b1100011 7
b1100011 E
b1100011 N
b0 9
b0 D
b0 J
18
b100 w
b100 x
b10101 y
b11111111111111111111111111110100 ^
b11111111111111111111111111110100 e
b11111111111111111111111111110100 i
b11111111111111111111111111110100 j
b11111111111111111111111111110100 u
b1000000000000 \
b1000000000000 o
b1000000000000 q
b11111110010000100000101011100011 #
b11111110010000100000101011100011 *
b11111110010000100000101011100011 0
b11111110010000100000101011100011 5
b11111110010000100000101011100011 T
b11111110010000100000101011100011 h
b1000000000000 Z
b1000000000000 p
b1000000000000 v
b1000000010000 [
b1000000010000 l
b1000000010000 n
b1000000001100 )
b1000000001100 1
b1000000001100 ?
b1000000001100 ]
b1000000001100 m
b1000000001100 s
b1000000001100 t
1%
#80
0%
#90
b1010 (
b1010 ,
b1010 6
b1010 U
b1010 !"
b100000000000 .
0:
b10000000000000 $
b10000000000000 +
b10000000000000 /
b10000000000000 B
b10000000000000 _
b10000000000000 c
b10000000000000 ~
b1010 Y
b1010 z
b1010 ""
0>
b0 C
b0 I
b0 M
b0 R
b0 `
1=
b0 @
b0 F
b0 O
b0 S
b0 g
1A
1<
0G
b0 H
b0 L
b0 P
b11111111111111111111111111111100 W
b11111111111111111111111111111100 a
b11111111111111111111111111111100 d
0K
b100101000 Q
b10000000000100 X
b10000000000100 b
b10000000000100 |
b0 !
b0 '
b0 -
b0 ;
b0 V
b0 f
b0 {
b11 7
b11 E
b11 N
b10 9
b10 D
b10 J
b1001 w
b11100 x
b110 y
b11111111111111111111111111111100 ^
b11111111111111111111111111111100 e
b11111111111111111111111111111100 i
b11111111111111111111111111111100 j
b11111111111111111111111111111100 u
b1000000000100 \
b1000000000100 o
b1000000000100 q
b11111111110001001010001100000011 #
b11111111110001001010001100000011 *
b11111111110001001010001100000011 0
b11111111110001001010001100000011 5
b11111111110001001010001100000011 T
b11111111110001001010001100000011 h
b111111111100 Z
b111111111100 p
b111111111100 v
b1000000000100 [
b1000000000100 l
b1000000000100 n
b1000000000000 )
b1000000000000 1
b1000000000000 ?
b1000000000000 ]
b1000000000000 m
b1000000000000 s
b1000000000000 t
1%
#100
0%
#110
b100000000011 .
b10000000001100 $
b10000000001100 +
b10000000001100 /
b10000000001100 B
b10000000001100 _
b10000000001100 c
b10000000001100 ~
b10000000001100 Y
b10000000001100 z
b10000000001100 ""
0=
b1 @
b1 F
b1 O
b1 S
b1 g
1"
0<
1K
b1110000 Q
b1010 !
b1010 '
b1010 -
b1010 ;
b1010 V
b1010 f
b1010 {
b1000 W
b1000 a
b1000 d
b100011 7
b100011 E
b100011 N
08
b110 x
b1000 y
b1000 ^
b1000 e
b1000 i
b1000 j
b1000 u
b1000000001000 \
b1000000001000 o
b1000000001000 q
b11001001010010000100011 #
b11001001010010000100011 *
b11001001010010000100011 0
b11001001010010000100011 5
b11001001010010000100011 T
b11001001010010000100011 h
b1000000001100 Z
b1000000001100 p
b1000000001100 v
b1000000001000 [
b1000000001000 l
b1000000001000 n
b1000000000100 )
b1000000000100 1
b1000000000100 ?
b1000000000100 ]
b1000000000100 m
b1000000000100 s
b1000000000100 t
1%
#120
0%
#130
b1110 Y
b1110 z
b1110 ""
bx (
bx ,
bx 6
bx U
bx !"
b11 .
b1110 $
b1110 +
b1110 /
b1110 B
b1110 _
b1110 c
b1110 ~
b11 C
b11 I
b11 M
b11 R
b11 `
1=
b0 @
b0 F
b0 O
b0 S
b0 g
0A
0"
b10 H
b10 L
b10 P
b100000010 Q
b110 X
b110 b
b110 |
b1010 W
b1010 a
b1010 d
b110011 7
b110011 E
b110011 N
b110 9
b110 D
b110 J
b101 w
b100 y
b110 ^
b110 e
b110 i
b110 j
b110 u
b1000000001100 \
b1000000001100 o
b1000000001100 q
b11000101110001000110011 #
b11000101110001000110011 *
b11000101110001000110011 0
b11000101110001000110011 5
b11000101110001000110011 T
b11000101110001000110011 h
b1000000001110 Z
b1000000001110 p
b1000000001110 v
b1000000001100 [
b1000000001100 l
b1000000001100 n
b1000000001000 )
b1000000001000 1
b1000000001000 ?
b1000000001000 ]
b1000000001000 m
b1000000001000 s
b1000000001000 t
1%
#140
0%
#150
1>
b0 Y
b0 z
b0 ""
b0 .
1:
b0 $
b0 +
b0 /
b0 B
b0 _
b0 c
b0 ~
0=
b10 @
b10 F
b10 O
b10 S
b10 g
1G
b1 H
b1 L
b1 P
b1110 W
b1110 a
b1110 d
b10000101 Q
b1 C
b1 I
b1 M
b1 R
b1 `
b1110 X
b1110 b
b1110 |
b1110 !
b1110 '
b1110 -
b1110 ;
b1110 V
b1110 f
b1110 {
b1100011 7
b1100011 E
b1100011 N
b0 9
b0 D
b0 J
18
b100 w
b100 x
b10101 y
b11111111111111111111111111110100 ^
b11111111111111111111111111110100 e
b11111111111111111111111111110100 i
b11111111111111111111111111110100 j
b11111111111111111111111111110100 u
b1000000000000 \
b1000000000000 o
b1000000000000 q
b11111110010000100000101011100011 #
b11111110010000100000101011100011 *
b11111110010000100000101011100011 0
b11111110010000100000101011100011 5
b11111110010000100000101011100011 T
b11111110010000100000101011100011 h
b1000000000000 Z
b1000000000000 p
b1000000000000 v
b1000000010000 [
b1000000010000 l
b1000000010000 n
b1000000001100 )
b1000000001100 1
b1000000001100 ?
b1000000001100 ]
b1000000001100 m
b1000000001100 s
b1000000001100 t
1%
#160
0%
#170
b1010 (
b1010 ,
b1010 6
b1010 U
b1010 !"
b100000000000 .
0:
b10000000000000 $
b10000000000000 +
b10000000000000 /
b10000000000000 B
b10000000000000 _
b10000000000000 c
b10000000000000 ~
b1010 Y
b1010 z
b1010 ""
0>
b0 C
b0 I
b0 M
b0 R
b0 `
1=
b0 @
b0 F
b0 O
b0 S
b0 g
1A
1<
0G
b0 H
b0 L
b0 P
b11111111111111111111111111111100 W
b11111111111111111111111111111100 a
b11111111111111111111111111111100 d
0K
b100101000 Q
b10000000000100 X
b10000000000100 b
b10000000000100 |
b0 !
b0 '
b0 -
b0 ;
b0 V
b0 f
b0 {
b11 7
b11 E
b11 N
b10 9
b10 D
b10 J
b1001 w
b11100 x
b110 y
b11111111111111111111111111111100 ^
b11111111111111111111111111111100 e
b11111111111111111111111111111100 i
b11111111111111111111111111111100 j
b11111111111111111111111111111100 u
b1000000000100 \
b1000000000100 o
b1000000000100 q
b11111111110001001010001100000011 #
b11111111110001001010001100000011 *
b11111111110001001010001100000011 0
b11111111110001001010001100000011 5
b11111111110001001010001100000011 T
b11111111110001001010001100000011 h
b111111111100 Z
b111111111100 p
b111111111100 v
b1000000000100 [
b1000000000100 l
b1000000000100 n
b1000000000000 )
b1000000000000 1
b1000000000000 ?
b1000000000000 ]
b1000000000000 m
b1000000000000 s
b1000000000000 t
1%
#180
0%
#190
b100000000011 .
b10000000001100 $
b10000000001100 +
b10000000001100 /
b10000000001100 B
b10000000001100 _
b10000000001100 c
b10000000001100 ~
b10000000001100 Y
b10000000001100 z
b10000000001100 ""
0=
b1 @
b1 F
b1 O
b1 S
b1 g
1"
0<
1K
b1110000 Q
b1010 !
b1010 '
b1010 -
b1010 ;
b1010 V
b1010 f
b1010 {
b1000 W
b1000 a
b1000 d
b100011 7
b100011 E
b100011 N
08
b110 x
b1000 y
b1000 ^
b1000 e
b1000 i
b1000 j
b1000 u
b1000000001000 \
b1000000001000 o
b1000000001000 q
b11001001010010000100011 #
b11001001010010000100011 *
b11001001010010000100011 0
b11001001010010000100011 5
b11001001010010000100011 T
b11001001010010000100011 h
b1000000001100 Z
b1000000001100 p
b1000000001100 v
b1000000001000 [
b1000000001000 l
b1000000001000 n
b1000000000100 )
b1000000000100 1
b1000000000100 ?
b1000000000100 ]
b1000000000100 m
b1000000000100 s
b1000000000100 t
1%
#200
0%
#210
b1110 Y
b1110 z
b1110 ""
bx (
bx ,
bx 6
bx U
bx !"
b11 .
b1110 $
b1110 +
b1110 /
b1110 B
b1110 _
b1110 c
b1110 ~
b11 C
b11 I
b11 M
b11 R
b11 `
1=
b0 @
b0 F
b0 O
b0 S
b0 g
0A
0"
b10 H
b10 L
b10 P
b100000010 Q
b110 X
b110 b
b110 |
b1010 W
b1010 a
b1010 d
b110011 7
b110011 E
b110011 N
b110 9
b110 D
b110 J
b101 w
b100 y
b110 ^
b110 e
b110 i
b110 j
b110 u
b1000000001100 \
b1000000001100 o
b1000000001100 q
b11000101110001000110011 #
b11000101110001000110011 *
b11000101110001000110011 0
b11000101110001000110011 5
b11000101110001000110011 T
b11000101110001000110011 h
b1000000001110 Z
b1000000001110 p
b1000000001110 v
b1000000001100 [
b1000000001100 l
b1000000001100 n
b1000000001000 )
b1000000001000 1
b1000000001000 ?
b1000000001000 ]
b1000000001000 m
b1000000001000 s
b1000000001000 t
1%
#220
0%
#230
1>
b0 Y
b0 z
b0 ""
b0 .
1:
b0 $
b0 +
b0 /
b0 B
b0 _
b0 c
b0 ~
0=
b10 @
b10 F
b10 O
b10 S
b10 g
1G
b1 H
b1 L
b1 P
b1110 W
b1110 a
b1110 d
b10000101 Q
b1 C
b1 I
b1 M
b1 R
b1 `
b1110 X
b1110 b
b1110 |
b1110 !
b1110 '
b1110 -
b1110 ;
b1110 V
b1110 f
b1110 {
b1100011 7
b1100011 E
b1100011 N
b0 9
b0 D
b0 J
18
b100 w
b100 x
b10101 y
b11111111111111111111111111110100 ^
b11111111111111111111111111110100 e
b11111111111111111111111111110100 i
b11111111111111111111111111110100 j
b11111111111111111111111111110100 u
b1000000000000 \
b1000000000000 o
b1000000000000 q
b11111110010000100000101011100011 #
b11111110010000100000101011100011 *
b11111110010000100000101011100011 0
b11111110010000100000101011100011 5
b11111110010000100000101011100011 T
b11111110010000100000101011100011 h
b1000000000000 Z
b1000000000000 p
b1000000000000 v
b1000000010000 [
b1000000010000 l
b1000000010000 n
b1000000001100 )
b1000000001100 1
b1000000001100 ?
b1000000001100 ]
b1000000001100 m
b1000000001100 s
b1000000001100 t
1%
#240
0%
#250
b1010 (
b1010 ,
b1010 6
b1010 U
b1010 !"
b100000000000 .
0:
b10000000000000 $
b10000000000000 +
b10000000000000 /
b10000000000000 B
b10000000000000 _
b10000000000000 c
b10000000000000 ~
b1010 Y
b1010 z
b1010 ""
0>
b0 C
b0 I
b0 M
b0 R
b0 `
1=
b0 @
b0 F
b0 O
b0 S
b0 g
1A
1<
0G
b0 H
b0 L
b0 P
b11111111111111111111111111111100 W
b11111111111111111111111111111100 a
b11111111111111111111111111111100 d
0K
b100101000 Q
b10000000000100 X
b10000000000100 b
b10000000000100 |
b0 !
b0 '
b0 -
b0 ;
b0 V
b0 f
b0 {
b11 7
b11 E
b11 N
b10 9
b10 D
b10 J
b1001 w
b11100 x
b110 y
b11111111111111111111111111111100 ^
b11111111111111111111111111111100 e
b11111111111111111111111111111100 i
b11111111111111111111111111111100 j
b11111111111111111111111111111100 u
b1000000000100 \
b1000000000100 o
b1000000000100 q
b11111111110001001010001100000011 #
b11111111110001001010001100000011 *
b11111111110001001010001100000011 0
b11111111110001001010001100000011 5
b11111111110001001010001100000011 T
b11111111110001001010001100000011 h
b111111111100 Z
b111111111100 p
b111111111100 v
b1000000000100 [
b1000000000100 l
b1000000000100 n
b1000000000000 )
b1000000000000 1
b1000000000000 ?
b1000000000000 ]
b1000000000000 m
b1000000000000 s
b1000000000000 t
1%
#260
0%
#270
b100000000011 .
b10000000001100 $
b10000000001100 +
b10000000001100 /
b10000000001100 B
b10000000001100 _
b10000000001100 c
b10000000001100 ~
b10000000001100 Y
b10000000001100 z
b10000000001100 ""
0=
b1 @
b1 F
b1 O
b1 S
b1 g
1"
0<
1K
b1110000 Q
b1010 !
b1010 '
b1010 -
b1010 ;
b1010 V
b1010 f
b1010 {
b1000 W
b1000 a
b1000 d
b100011 7
b100011 E
b100011 N
08
b110 x
b1000 y
b1000 ^
b1000 e
b1000 i
b1000 j
b1000 u
b1000000001000 \
b1000000001000 o
b1000000001000 q
b11001001010010000100011 #
b11001001010010000100011 *
b11001001010010000100011 0
b11001001010010000100011 5
b11001001010010000100011 T
b11001001010010000100011 h
b1000000001100 Z
b1000000001100 p
b1000000001100 v
b1000000001000 [
b1000000001000 l
b1000000001000 n
b1000000000100 )
b1000000000100 1
b1000000000100 ?
b1000000000100 ]
b1000000000100 m
b1000000000100 s
b1000000000100 t
1%
#280
0%
#290
b1110 Y
b1110 z
b1110 ""
bx (
bx ,
bx 6
bx U
bx !"
b11 .
b1110 $
b1110 +
b1110 /
b1110 B
b1110 _
b1110 c
b1110 ~
b11 C
b11 I
b11 M
b11 R
b11 `
1=
b0 @
b0 F
b0 O
b0 S
b0 g
0A
0"
b10 H
b10 L
b10 P
b100000010 Q
b110 X
b110 b
b110 |
b1010 W
b1010 a
b1010 d
b110011 7
b110011 E
b110011 N
b110 9
b110 D
b110 J
b101 w
b100 y
b110 ^
b110 e
b110 i
b110 j
b110 u
b1000000001100 \
b1000000001100 o
b1000000001100 q
b11000101110001000110011 #
b11000101110001000110011 *
b11000101110001000110011 0
b11000101110001000110011 5
b11000101110001000110011 T
b11000101110001000110011 h
b1000000001110 Z
b1000000001110 p
b1000000001110 v
b1000000001100 [
b1000000001100 l
b1000000001100 n
b1000000001000 )
b1000000001000 1
b1000000001000 ?
b1000000001000 ]
b1000000001000 m
b1000000001000 s
b1000000001000 t
1%
#300
0%
#310
1>
b0 Y
b0 z
b0 ""
b0 .
1:
b0 $
b0 +
b0 /
b0 B
b0 _
b0 c
b0 ~
0=
b10 @
b10 F
b10 O
b10 S
b10 g
1G
b1 H
b1 L
b1 P
b1110 W
b1110 a
b1110 d
b10000101 Q
b1 C
b1 I
b1 M
b1 R
b1 `
b1110 X
b1110 b
b1110 |
b1110 !
b1110 '
b1110 -
b1110 ;
b1110 V
b1110 f
b1110 {
b1100011 7
b1100011 E
b1100011 N
b0 9
b0 D
b0 J
18
b100 w
b100 x
b10101 y
b11111111111111111111111111110100 ^
b11111111111111111111111111110100 e
b11111111111111111111111111110100 i
b11111111111111111111111111110100 j
b11111111111111111111111111110100 u
b1000000000000 \
b1000000000000 o
b1000000000000 q
b11111110010000100000101011100011 #
b11111110010000100000101011100011 *
b11111110010000100000101011100011 0
b11111110010000100000101011100011 5
b11111110010000100000101011100011 T
b11111110010000100000101011100011 h
b1000000000000 Z
b1000000000000 p
b1000000000000 v
b1000000010000 [
b1000000010000 l
b1000000010000 n
b1000000001100 )
b1000000001100 1
b1000000001100 ?
b1000000001100 ]
b1000000001100 m
b1000000001100 s
b1000000001100 t
1%
#320
0%
#330
b1010 (
b1010 ,
b1010 6
b1010 U
b1010 !"
b100000000000 .
0:
b10000000000000 $
b10000000000000 +
b10000000000000 /
b10000000000000 B
b10000000000000 _
b10000000000000 c
b10000000000000 ~
b1010 Y
b1010 z
b1010 ""
0>
b0 C
b0 I
b0 M
b0 R
b0 `
1=
b0 @
b0 F
b0 O
b0 S
b0 g
1A
1<
0G
b0 H
b0 L
b0 P
b11111111111111111111111111111100 W
b11111111111111111111111111111100 a
b11111111111111111111111111111100 d
0K
b100101000 Q
b10000000000100 X
b10000000000100 b
b10000000000100 |
b0 !
b0 '
b0 -
b0 ;
b0 V
b0 f
b0 {
b11 7
b11 E
b11 N
b10 9
b10 D
b10 J
b1001 w
b11100 x
b110 y
b11111111111111111111111111111100 ^
b11111111111111111111111111111100 e
b11111111111111111111111111111100 i
b11111111111111111111111111111100 j
b11111111111111111111111111111100 u
b1000000000100 \
b1000000000100 o
b1000000000100 q
b11111111110001001010001100000011 #
b11111111110001001010001100000011 *
b11111111110001001010001100000011 0
b11111111110001001010001100000011 5
b11111111110001001010001100000011 T
b11111111110001001010001100000011 h
b111111111100 Z
b111111111100 p
b111111111100 v
b1000000000100 [
b1000000000100 l
b1000000000100 n
b1000000000000 )
b1000000000000 1
b1000000000000 ?
b1000000000000 ]
b1000000000000 m
b1000000000000 s
b1000000000000 t
1%
#340
0%
#350
b100000000011 .
b10000000001100 $
b10000000001100 +
b10000000001100 /
b10000000001100 B
b10000000001100 _
b10000000001100 c
b10000000001100 ~
b10000000001100 Y
b10000000001100 z
b10000000001100 ""
0=
b1 @
b1 F
b1 O
b1 S
b1 g
1"
0<
1K
b1110000 Q
b1010 !
b1010 '
b1010 -
b1010 ;
b1010 V
b1010 f
b1010 {
b1000 W
b1000 a
b1000 d
b100011 7
b100011 E
b100011 N
08
b110 x
b1000 y
b1000 ^
b1000 e
b1000 i
b1000 j
b1000 u
b1000000001000 \
b1000000001000 o
b1000000001000 q
b11001001010010000100011 #
b11001001010010000100011 *
b11001001010010000100011 0
b11001001010010000100011 5
b11001001010010000100011 T
b11001001010010000100011 h
b1000000001100 Z
b1000000001100 p
b1000000001100 v
b1000000001000 [
b1000000001000 l
b1000000001000 n
b1000000000100 )
b1000000000100 1
b1000000000100 ?
b1000000000100 ]
b1000000000100 m
b1000000000100 s
b1000000000100 t
1%
#360
0%
#370
b1110 Y
b1110 z
b1110 ""
bx (
bx ,
bx 6
bx U
bx !"
b11 .
b1110 $
b1110 +
b1110 /
b1110 B
b1110 _
b1110 c
b1110 ~
b11 C
b11 I
b11 M
b11 R
b11 `
1=
b0 @
b0 F
b0 O
b0 S
b0 g
0A
0"
b10 H
b10 L
b10 P
b100000010 Q
b110 X
b110 b
b110 |
b1010 W
b1010 a
b1010 d
b110011 7
b110011 E
b110011 N
b110 9
b110 D
b110 J
b101 w
b100 y
b110 ^
b110 e
b110 i
b110 j
b110 u
b1000000001100 \
b1000000001100 o
b1000000001100 q
b11000101110001000110011 #
b11000101110001000110011 *
b11000101110001000110011 0
b11000101110001000110011 5
b11000101110001000110011 T
b11000101110001000110011 h
b1000000001110 Z
b1000000001110 p
b1000000001110 v
b1000000001100 [
b1000000001100 l
b1000000001100 n
b1000000001000 )
b1000000001000 1
b1000000001000 ?
b1000000001000 ]
b1000000001000 m
b1000000001000 s
b1000000001000 t
1%
#380
0%
#390
1>
b0 Y
b0 z
b0 ""
b0 .
1:
b0 $
b0 +
b0 /
b0 B
b0 _
b0 c
b0 ~
0=
b10 @
b10 F
b10 O
b10 S
b10 g
1G
b1 H
b1 L
b1 P
b1110 W
b1110 a
b1110 d
b10000101 Q
b1 C
b1 I
b1 M
b1 R
b1 `
b1110 X
b1110 b
b1110 |
b1110 !
b1110 '
b1110 -
b1110 ;
b1110 V
b1110 f
b1110 {
b1100011 7
b1100011 E
b1100011 N
b0 9
b0 D
b0 J
18
b100 w
b100 x
b10101 y
b11111111111111111111111111110100 ^
b11111111111111111111111111110100 e
b11111111111111111111111111110100 i
b11111111111111111111111111110100 j
b11111111111111111111111111110100 u
b1000000000000 \
b1000000000000 o
b1000000000000 q
b11111110010000100000101011100011 #
b11111110010000100000101011100011 *
b11111110010000100000101011100011 0
b11111110010000100000101011100011 5
b11111110010000100000101011100011 T
b11111110010000100000101011100011 h
b1000000000000 Z
b1000000000000 p
b1000000000000 v
b1000000010000 [
b1000000010000 l
b1000000010000 n
b1000000001100 )
b1000000001100 1
b1000000001100 ?
b1000000001100 ]
b1000000001100 m
b1000000001100 s
b1000000001100 t
1%
#400
0%
