riscv_cpu.vcd
$date
	Thu Jan 15 15:27:03 2026
$end
$version
	Icarus Verilog
$end
$timescale
	1s
$end
$scope module tb_cpu $end
$var wire 32 ! WriteData [31:0] $end
$var wire 1 " MemWrite $end
$var wire 32 # Instr [31:0] $end
$var wire 32 $ ALUResult [31:0] $end
$var reg 1 % clk $end
$var reg 1 & rst $end
$scope module DUT $end
$var wire 1 % clk $end
$var wire 1 & rst $end
$var wire 32 ' WriteData [31:0] $end
$var wire 32 ( ReadData [31:0] $end
$var wire 32 ) PC [31:0] $end
$var wire 1 " MemWrite $end
$var wire 32 * Instr [31:0] $end
$var wire 32 + ALUResult [31:0] $end
$scope module DATA_MEMORY $end
$var wire 1 % clk $end
$var wire 32 , rd [31:0] $end
$var wire 1 " we $end
$var wire 32 - wd [31:0] $end
$var wire 32 . addr_word [31:0] $end
$var wire 32 / a [31:0] $end
$upscope $end
$scope module INSTR $end
$var wire 32 0 rd [31:0] $end
$var wire 32 1 a [31:0] $end
$var parameter 1008 2 PATH_FILE $end
$var parameter 32 3 PC_BASE_WORD $end
$var parameter 32 4 WIDTH_WORD $end
$upscope $end
$scope module SYSTEM $end
$var wire 32 5 Instr [31:0] $end
$var wire 32 6 ReadData [31:0] $end
$var wire 1 % clk $end
$var wire 1 & rst $end
$var wire 7 7 op [6:0] $end
$var wire 1 8 funct7_5 $end
$var wire 3 9 funct3 [2:0] $end
$var wire 1 : Zero $end
$var wire 32 ; WriteData [31:0] $end
$var wire 1 < ResultSrc $end
$var wire 1 = RegWrite $end
$var wire 1 > PCSrc $end
$var wire 32 ? PC [31:0] $end
$var wire 1 " MemWrite $end
$var wire 2 @ ImmSrc [1:0] $end
$var wire 1 A ALUSrc $end
$var wire 32 B ALUResult [31:0] $end
$var wire 3 C ALUControl [2:0] $end
$scope module CONTROL_UNIT $end
$var wire 1 > PCSrc $end
$var wire 3 D funct3 [2:0] $end
$var wire 1 8 funct7_5 $end
$var wire 7 E op [6:0] $end
$var wire 1 : Zero $end
$var wire 1 < ResultSrc $end
$var wire 1 = RegWrite $end
$var wire 1 " MemWrite $end
$var wire 2 F ImmSrc [1:0] $end
$var wire 1 G Branch $end
$var wire 1 A ALUSrc $end
$var wire 2 H ALUOp [1:0] $end
$var wire 3 I ALUControl [2:0] $end
$scope module ALUDecoder $end
$var wire 3 J funct3 [2:0] $end
$var wire 1 8 funct7_5 $end
$var wire 1 K op_5 $end
$var wire 2 L ALUOp [1:0] $end
$var reg 3 M ALUControl [2:0] $end
$upscope $end
$scope module MainDecoder $end
$var wire 7 N op [6:0] $end
$var wire 1 < ResultSrc $end
$var wire 1 = RegWrite $end
$var wire 1 " MemWrite $end
$var wire 2 O ImmSrc [1:0] $end
$var wire 1 G Branch $end
$var wire 1 A ALUSrc $end
$var wire 2 P ALUOp [1:0] $end
$var reg 9 Q instruction [8:0] $end
$upscope $end
$upscope $end
$scope module DATAPATH $end
$var wire 3 R ALUControl [2:0] $end
$var wire 1 A ALUSrc $end
$var wire 2 S ImmSrc [1:0] $end
$var wire 32 T Instr [31:0] $end
$var wire 1 > PCSrc $end
$var wire 32 U ReadData [31:0] $end
$var wire 1 = RegWrite $end
$var wire 1 < ResultSrc $end
$var wire 1 % clk $end
$var wire 1 & rst $end
$var wire 1 : Zero $end
$var wire 32 V WriteData [31:0] $end
$var wire 32 W SrcB [31:0] $end
$var wire 32 X SrcA [31:0] $end
$var wire 32 Y Result [31:0] $end
$var wire 32 Z PCTarget [31:0] $end
$var wire 32 [ PCPlus4 [31:0] $end
$var wire 32 \ PCNext [31:0] $end
$var wire 32 ] PC [31:0] $end
$var wire 32 ^ ImmExt [31:0] $end
$var wire 32 _ ALUResult [31:0] $end
$scope module ALU $end
$var wire 3 ` alu_ctrl [2:0] $end
$var wire 32 a b [31:0] $end
$var wire 32 b a [31:0] $end
$var reg 32 c result [31:0] $end
$var reg 1 : zero $end
$upscope $end
$scope module ALU_SRC_MUX $end
$var wire 1 A sel $end
$var wire 32 d y [31:0] $end
$var wire 32 e d1 [31:0] $end
$var wire 32 f d0 [31:0] $end
$upscope $end
$scope module EXTEND_UNIT $end
$var wire 2 g ImmSrc [1:0] $end
$var wire 32 h Instr [31:0] $end
$var wire 32 i ImmExt [31:0] $end
$var reg 32 j ImmExtReg [31:0] $end
$upscope $end
$scope module PC_ADDER $end
$var wire 32 k b [31:0] $end
$var wire 32 l y [31:0] $end
$var wire 32 m a [31:0] $end
$upscope $end
$scope module PC_MUX $end
$var wire 32 n d0 [31:0] $end
$var wire 1 > sel $end
$var wire 32 o y [31:0] $end
$var wire 32 p d1 [31:0] $end
$upscope $end
$scope module PC_REG $end
$var wire 1 % clk $end
$var wire 32 q pc_next [31:0] $end
$var wire 1 & rst $end
$var parameter 32 r PC_RESET $end
$var reg 32 s pc [31:0] $end
$upscope $end
$scope module PC_TARGET_ADDER $end
$var wire 32 t a [31:0] $end
$var wire 32 u b [31:0] $end
$var wire 32 v y [31:0] $end
$upscope $end
$scope module REGISTER_FILE $end
$var wire 1 % clk $end
$var wire 5 w ra1 [4:0] $end
$var wire 5 x ra2 [4:0] $end
$var wire 1 & rst $end
$var wire 5 y wa3 [4:0] $end
$var wire 1 = we3 $end
$var wire 32 z wd3 [31:0] $end
$var wire 32 { rd2 [31:0] $end
$var wire 32 | rd1 [31:0] $end
$var integer 32 } i [31:0] $end
$upscope $end
$scope module RESULT_MUX $end
$var wire 32 ~ d0 [31:0] $end
$var wire 32 !" d1 [31:0] $end
$var wire 1 < sel $end
$var wire 32 "" y [31:0] $end
$upscope $end
$upscope $end
$upscope $end
$upscope $end
$upscope $end
$enddefinitions $end
$comment Show the parameter values. $end
$dumpall
b1000000000000 r
b1111111111111111 4
b10000000000 3
b10000110011101000101111010101010111001101100101011100100111001100101111011001100110010101101000011100110110010100101111010001000110111101100011011101010110110101100101011011100111010001110011001011110111010101101110011010010110011001100101011010010010111101100011011010010110010001101001011001110110100101110100011000010110110000101111011001100110010101110010011011100110000101101110011001000110000100101111011001010110111001110100011100100110010101100111011000010111001100101111010101000111001001100001011000100110000101101100011010000110111100101111010011010110100101100011011100100110111101100001011100100111000101110101011010010111010001100101011101000111010101110010011000010101111101010010010010010101001101000011001011010101011001011111010100110110100101101110011001110110110001100101001011010100001101111001011000110110110001100101001011110110110101100001011000110110100001101001011011100110010101011111011011000110000101101110011001110111010101100001011001110110010100101110011101000111100001110100 2
$end
#0
$dumpvars
bx ""
bx !"
bx ~
bx }
b0 |
bx {
bx z
b1 y
b1010 x
b0 w
b1000000001010 v
b1010 u
b1000000000000 t
b1000000000000 s
b1000000000100 q
b1000000001010 p
b1000000000100 o
b1000000000100 n
b1000000000000 m
b1000000000100 l
b100 k
b1010 j
b1010 i
b101000000000000010010011 h
b0 g
bx f
b1010 e
bx d
bx c
b0 b
bx a
b0 `
bx _
b1010 ^
b1000000000000 ]
b1000000000100 \
b1000000000100 [
b1000000001010 Z
bx Y
b0 X
bx W
bx V
bx U
b101000000000000010010011 T
b0 S
b0 R
b0 Q
b0 P
b0 O
b10011 N
b0 M
b0 L
0K
b0 J
b0 I
b0 H
0G
b0 F
b10011 E
b0 D
b0 C
bx B
0A
b0 @
b1000000000000 ?
0>
0=
0<
bx ;
0:
b0 9
08
b10011 7
bx 6
b101000000000000010010011 5
b1000000000000 1
b101000000000000010010011 0
bx /
b0xxxxxxxxxxxxxxxxxxxxxxxxxxxxxx .
bx -
bx ,
bx +
b101000000000000010010011 *
b1000000000000 )
bx (
bx '
1&
0%
bx $
b101000000000000010010011 #
0"
bx !
$end
#10
b0 Y
b0 z
b0 ""
b0 .
1:
b0 $
b0 +
b0 /
b0 B
b0 _
b0 c
b0 ~
b0 W
b0 a
b0 d
b0 !
b0 '
b0 -
b0 ;
b0 V
b0 f
b0 {
b100000 }
1%
#20
0%
0&
#30
b10100 x
b10 y
b10100 ^
b10100 e
b10100 i
b10100 j
b10100 u
b1000000001000 \
b1000000001000 o
b1000000001000 q
b1010000000000000100010011 #
b1010000000000000100010011 *
b1010000000000000100010011 0
b1010000000000000100010011 5
b1010000000000000100010011 T
b1010000000000000100010011 h
b1000000011000 Z
b1000000011000 p
b1000000011000 v
b1000000001000 [
b1000000001000 l
b1000000001000 n
b1000000000100 )
b1000000000100 1
b1000000000100 ?
b1000000000100 ]
b1000000000100 m
b1000000000100 s
b1000000000100 t
1%
#40
0%
#50
1=
b10 H
b10 L
b10 P
1K
b100000010 Q
b110011 7
b110011 E
b110011 N
b1 w
b10 x
b101 y
b10 ^
b10 e
b10 i
b10 j
b10 u
b1000000001100 \
b1000000001100 o
b1000000001100 q
b1000001000001010110011 #
b1000001000001010110011 *
b1000001000001010110011 0
b1000001000001010110011 5
b1000001000001010110011 T
b1000001000001010110011 h
b1000000001010 Z
b1000000001010 p
b1000000001010 v
b1000000001100 [
b1000000001100 l
b1000000001100 n
b1000000001000 )
b1000000001000 1
b1000000001000 ?
b1000000001000 ]
b1000000001000 m
b1000000001000 s
b1000000001000 t
1%
#60
0%
#70
bx Y
bx z
bx ""
b0xxxxxxxxxxxxxxxxxxxxxxxxxxxxxx .
0:
bx $
bx +
bx /
bx B
bx _
bx c
bx ~
0=
b0 H
b0 L
b0 P
bx W
bx a
bx d
xK
b0 Q
b0 C
b0 I
b0 M
b0 R
b0 `
bx X
bx b
bx |
bx !
bx '
bx -
bx ;
bx V
bx f
bx {
bx 7
bx E
bx N
bx 9
bx D
bx J
x8
bx w
bx x
bx y
bx ^
bx e
bx i
bx j
bx u
b1000000010000 \
b1000000010000 o
b1000000010000 q
bx #
bx *
bx 0
bx 5
bx T
bx h
bx Z
bx p
bx v
b1000000010000 [
b1000000010000 l
b1000000010000 n
b1000000001100 )
b1000000001100 1
b1000000001100 ?
b1000000001100 ]
b1000000001100 m
b1000000001100 s
b1000000001100 t
1%
#80
0%
#90
b1000000010100 \
b1000000010100 o
b1000000010100 q
b1000000010100 [
b1000000010100 l
b1000000010100 n
b1000000010000 )
b1000000010000 1
b1000000010000 ?
b1000000010000 ]
b1000000010000 m
b1000000010000 s
b1000000010000 t
1%
#100
0%
#110
b1000000011000 \
b1000000011000 o
b1000000011000 q
b1000000011000 [
b1000000011000 l
b1000000011000 n
b1000000010100 )
b1000000010100 1
b1000000010100 ?
b1000000010100 ]
b1000000010100 m
b1000000010100 s
b1000000010100 t
1%
#120
0%
#130
b1000000011100 \
b1000000011100 o
b1000000011100 q
b1000000011100 [
b1000000011100 l
b1000000011100 n
b1000000011000 )
b1000000011000 1
b1000000011000 ?
b1000000011000 ]
b1000000011000 m
b1000000011000 s
b1000000011000 t
1%
#140
0%
#150
b1000000100000 \
b1000000100000 o
b1000000100000 q
b1000000100000 [
b1000000100000 l
b1000000100000 n
b1000000011100 )
b1000000011100 1
b1000000011100 ?
b1000000011100 ]
b1000000011100 m
b1000000011100 s
b1000000011100 t
1%
#160
0%
#170
b1000000100100 \
b1000000100100 o
b1000000100100 q
b1000000100100 [
b1000000100100 l
b1000000100100 n
b1000000100000 )
b1000000100000 1
b1000000100000 ?
b1000000100000 ]
b1000000100000 m
b1000000100000 s
b1000000100000 t
1%
#180
0%
#190
b1000000101000 \
b1000000101000 o
b1000000101000 q
b1000000101000 [
b1000000101000 l
b1000000101000 n
b1000000100100 )
b1000000100100 1
b1000000100100 ?
b1000000100100 ]
b1000000100100 m
b1000000100100 s
b1000000100100 t
1%
#200
0%
#210
b1000000101100 \
b1000000101100 o
b1000000101100 q
b1000000101100 [
b1000000101100 l
b1000000101100 n
b1000000101000 )
b1000000101000 1
b1000000101000 ?
b1000000101000 ]
b1000000101000 m
b1000000101000 s
b1000000101000 t
1%
#220
0%
#230
b1000000110000 \
b1000000110000 o
b1000000110000 q
b1000000110000 [
b1000000110000 l
b1000000110000 n
b1000000101100 )
b1000000101100 1
b1000000101100 ?
b1000000101100 ]
b1000000101100 m
b1000000101100 s
b1000000101100 t
1%
#240
0%
#250
b1000000110100 \
b1000000110100 o
b1000000110100 q
b1000000110100 [
b1000000110100 l
b1000000110100 n
b1000000110000 )
b1000000110000 1
b1000000110000 ?
b1000000110000 ]
b1000000110000 m
b1000000110000 s
b1000000110000 t
1%
#260
0%
#270
b1000000111000 \
b1000000111000 o
b1000000111000 q
b1000000111000 [
b1000000111000 l
b1000000111000 n
b1000000110100 )
b1000000110100 1
b1000000110100 ?
b1000000110100 ]
b1000000110100 m
b1000000110100 s
b1000000110100 t
1%
#280
0%
#290
b1000000111100 \
b1000000111100 o
b1000000111100 q
b1000000111100 [
b1000000111100 l
b1000000111100 n
b1000000111000 )
b1000000111000 1
b1000000111000 ?
b1000000111000 ]
b1000000111000 m
b1000000111000 s
b1000000111000 t
1%
#300
0%
#310
b1000001000000 \
b1000001000000 o
b1000001000000 q
b1000001000000 [
b1000001000000 l
b1000001000000 n
b1000000111100 )
b1000000111100 1
b1000000111100 ?
b1000000111100 ]
b1000000111100 m
b1000000111100 s
b1000000111100 t
1%
#320
0%
#330
b1000001000100 \
b1000001000100 o
b1000001000100 q
b1000001000100 [
b1000001000100 l
b1000001000100 n
b1000001000000 )
b1000001000000 1
b1000001000000 ?
b1000001000000 ]
b1000001000000 m
b1000001000000 s
b1000001000000 t
1%
#340
0%
#350
b1000001001000 \
b1000001001000 o
b1000001001000 q
b1000001001000 [
b1000001001000 l
b1000001001000 n
b1000001000100 )
b1000001000100 1
b1000001000100 ?
b1000001000100 ]
b1000001000100 m
b1000001000100 s
b1000001000100 t
1%
#360
0%
#370
b1000001001100 \
b1000001001100 o
b1000001001100 q
b1000001001100 [
b1000001001100 l
b1000001001100 n
b1000001001000 )
b1000001001000 1
b1000001001000 ?
b1000001001000 ]
b1000001001000 m
b1000001001000 s
b1000001001000 t
1%
#380
0%
#390
b1000001010000 \
b1000001010000 o
b1000001010000 q
b1000001010000 [
b1000001010000 l
b1000001010000 n
b1000001001100 )
b1000001001100 1
b1000001001100 ?
b1000001001100 ]
b1000001001100 m
b1000001001100 s
b1000001001100 t
1%
#400
0%
#410
b1000001010100 \
b1000001010100 o
b1000001010100 q
b1000001010100 [
b1000001010100 l
b1000001010100 n
b1000001010000 )
b1000001010000 1
b1000001010000 ?
b1000001010000 ]
b1000001010000 m
b1000001010000 s
b1000001010000 t
1%
#420
0%
#430
b1000001011000 \
b1000001011000 o
b1000001011000 q
b1000001011000 [
b1000001011000 l
b1000001011000 n
b1000001010100 )
b1000001010100 1
b1000001010100 ?
b1000001010100 ]
b1000001010100 m
b1000001010100 s
b1000001010100 t
1%
#440
0%
#450
b1000001011100 \
b1000001011100 o
b1000001011100 q
b1000001011100 [
b1000001011100 l
b1000001011100 n
b1000001011000 )
b1000001011000 1
b1000001011000 ?
b1000001011000 ]
b1000001011000 m
b1000001011000 s
b1000001011000 t
1%
#460
0%
#470
b1000001100000 \
b1000001100000 o
b1000001100000 q
b1000001100000 [
b1000001100000 l
b1000001100000 n
b1000001011100 )
b1000001011100 1
b1000001011100 ?
b1000001011100 ]
b1000001011100 m
b1000001011100 s
b1000001011100 t
1%
#480
0%
#490
b1000001100100 \
b1000001100100 o
b1000001100100 q
b1000001100100 [
b1000001100100 l
b1000001100100 n
b1000001100000 )
b1000001100000 1
b1000001100000 ?
b1000001100000 ]
b1000001100000 m
b1000001100000 s
b1000001100000 t
1%
#500
0%
#510
b1000001101000 \
b1000001101000 o
b1000001101000 q
b1000001101000 [
b1000001101000 l
b1000001101000 n
b1000001100100 )
b1000001100100 1
b1000001100100 ?
b1000001100100 ]
b1000001100100 m
b1000001100100 s
b1000001100100 t
1%
#520
0%
#530
b1000001101100 \
b1000001101100 o
b1000001101100 q
b1000001101100 [
b1000001101100 l
b1000001101100 n
b1000001101000 )
b1000001101000 1
b1000001101000 ?
b1000001101000 ]
b1000001101000 m
b1000001101000 s
b1000001101000 t
1%
#540
0%
#550
b1000001110000 \
b1000001110000 o
b1000001110000 q
b1000001110000 [
b1000001110000 l
b1000001110000 n
b1000001101100 )
b1000001101100 1
b1000001101100 ?
b1000001101100 ]
b1000001101100 m
b1000001101100 s
b1000001101100 t
1%
#560
0%
#570
b1000001110100 \
b1000001110100 o
b1000001110100 q
b1000001110100 [
b1000001110100 l
b1000001110100 n
b1000001110000 )
b1000001110000 1
b1000001110000 ?
b1000001110000 ]
b1000001110000 m
b1000001110000 s
b1000001110000 t
1%
#580
0%
#590
b1000001111000 \
b1000001111000 o
b1000001111000 q
b1000001111000 [
b1000001111000 l
b1000001111000 n
b1000001110100 )
b1000001110100 1
b1000001110100 ?
b1000001110100 ]
b1000001110100 m
b1000001110100 s
b1000001110100 t
1%
#600
0%
#610
b1000001111100 \
b1000001111100 o
b1000001111100 q
b1000001111100 [
b1000001111100 l
b1000001111100 n
b1000001111000 )
b1000001111000 1
b1000001111000 ?
b1000001111000 ]
b1000001111000 m
b1000001111000 s
b1000001111000 t
1%
#620
0%
#630
b1000010000000 \
b1000010000000 o
b1000010000000 q
b1000010000000 [
b1000010000000 l
b1000010000000 n
b1000001111100 )
b1000001111100 1
b1000001111100 ?
b1000001111100 ]
b1000001111100 m
b1000001111100 s
b1000001111100 t
1%
#640
0%
#650
b1000010000100 \
b1000010000100 o
b1000010000100 q
b1000010000100 [
b1000010000100 l
b1000010000100 n
b1000010000000 )
b1000010000000 1
b1000010000000 ?
b1000010000000 ]
b1000010000000 m
b1000010000000 s
b1000010000000 t
1%
#660
0%
#670
b1000010001000 \
b1000010001000 o
b1000010001000 q
b1000010001000 [
b1000010001000 l
b1000010001000 n
b1000010000100 )
b1000010000100 1
b1000010000100 ?
b1000010000100 ]
b1000010000100 m
b1000010000100 s
b1000010000100 t
1%
#680
0%
#690
b1000010001100 \
b1000010001100 o
b1000010001100 q
b1000010001100 [
b1000010001100 l
b1000010001100 n
b1000010001000 )
b1000010001000 1
b1000010001000 ?
b1000010001000 ]
b1000010001000 m
b1000010001000 s
b1000010001000 t
1%
#700
0%
#710
b1000010010000 \
b1000010010000 o
b1000010010000 q
b1000010010000 [
b1000010010000 l
b1000010010000 n
b1000010001100 )
b1000010001100 1
b1000010001100 ?
b1000010001100 ]
b1000010001100 m
b1000010001100 s
b1000010001100 t
1%
#720
0%
#730
b1000010010100 \
b1000010010100 o
b1000010010100 q
b1000010010100 [
b1000010010100 l
b1000010010100 n
b1000010010000 )
b1000010010000 1
b1000010010000 ?
b1000010010000 ]
b1000010010000 m
b1000010010000 s
b1000010010000 t
1%
#740
0%
#750
b1000010011000 \
b1000010011000 o
b1000010011000 q
b1000010011000 [
b1000010011000 l
b1000010011000 n
b1000010010100 )
b1000010010100 1
b1000010010100 ?
b1000010010100 ]
b1000010010100 m
b1000010010100 s
b1000010010100 t
1%
#760
0%
#770
b1000010011100 \
b1000010011100 o
b1000010011100 q
b1000010011100 [
b1000010011100 l
b1000010011100 n
b1000010011000 )
b1000010011000 1
b1000010011000 ?
b1000010011000 ]
b1000010011000 m
b1000010011000 s
b1000010011000 t
1%
#780
0%
#790
b1000010100000 \
b1000010100000 o
b1000010100000 q
b1000010100000 [
b1000010100000 l
b1000010100000 n
b1000010011100 )
b1000010011100 1
b1000010011100 ?
b1000010011100 ]
b1000010011100 m
b1000010011100 s
b1000010011100 t
1%
#800
0%
#810
b1000010100100 \
b1000010100100 o
b1000010100100 q
b1000010100100 [
b1000010100100 l
b1000010100100 n
b1000010100000 )
b1000010100000 1
b1000010100000 ?
b1000010100000 ]
b1000010100000 m
b1000010100000 s
b1000010100000 t
1%
#820
0%
#830
b1000010101000 \
b1000010101000 o
b1000010101000 q
b1000010101000 [
b1000010101000 l
b1000010101000 n
b1000010100100 )
b1000010100100 1
b1000010100100 ?
b1000010100100 ]
b1000010100100 m
b1000010100100 s
b1000010100100 t
1%
#840
0%
#850
b1000010101100 \
b1000010101100 o
b1000010101100 q
b1000010101100 [
b1000010101100 l
b1000010101100 n
b1000010101000 )
b1000010101000 1
b1000010101000 ?
b1000010101000 ]
b1000010101000 m
b1000010101000 s
b1000010101000 t
1%
#860
0%
#870
b1000010110000 \
b1000010110000 o
b1000010110000 q
b1000010110000 [
b1000010110000 l
b1000010110000 n
b1000010101100 )
b1000010101100 1
b1000010101100 ?
b1000010101100 ]
b1000010101100 m
b1000010101100 s
b1000010101100 t
1%
#880
0%
#890
b1000010110100 \
b1000010110100 o
b1000010110100 q
b1000010110100 [
b1000010110100 l
b1000010110100 n
b1000010110000 )
b1000010110000 1
b1000010110000 ?
b1000010110000 ]
b1000010110000 m
b1000010110000 s
b1000010110000 t
1%
#900
0%
#910
b1000010111000 \
b1000010111000 o
b1000010111000 q
b1000010111000 [
b1000010111000 l
b1000010111000 n
b1000010110100 )
b1000010110100 1
b1000010110100 ?
b1000010110100 ]
b1000010110100 m
b1000010110100 s
b1000010110100 t
1%
#920
0%
#930
b1000010111100 \
b1000010111100 o
b1000010111100 q
b1000010111100 [
b1000010111100 l
b1000010111100 n
b1000010111000 )
b1000010111000 1
b1000010111000 ?
b1000010111000 ]
b1000010111000 m
b1000010111000 s
b1000010111000 t
1%
#940
0%
#950
b1000011000000 \
b1000011000000 o
b1000011000000 q
b1000011000000 [
b1000011000000 l
b1000011000000 n
b1000010111100 )
b1000010111100 1
b1000010111100 ?
b1000010111100 ]
b1000010111100 m
b1000010111100 s
b1000010111100 t
1%
#960
0%
#970
b1000011000100 \
b1000011000100 o
b1000011000100 q
b1000011000100 [
b1000011000100 l
b1000011000100 n
b1000011000000 )
b1000011000000 1
b1000011000000 ?
b1000011000000 ]
b1000011000000 m
b1000011000000 s
b1000011000000 t
1%
#980
0%
#990
b1000011001000 \
b1000011001000 o
b1000011001000 q
b1000011001000 [
b1000011001000 l
b1000011001000 n
b1000011000100 )
b1000011000100 1
b1000011000100 ?
b1000011000100 ]
b1000011000100 m
b1000011000100 s
b1000011000100 t
1%
#1000
0%
#1010
b1000011001100 \
b1000011001100 o
b1000011001100 q
b1000011001100 [
b1000011001100 l
b1000011001100 n
b1000011001000 )
b1000011001000 1
b1000011001000 ?
b1000011001000 ]
b1000011001000 m
b1000011001000 s
b1000011001000 t
1%
#1020
0%
#1030
b1000011010000 \
b1000011010000 o
b1000011010000 q
b1000011010000 [
b1000011010000 l
b1000011010000 n
b1000011001100 )
b1000011001100 1
b1000011001100 ?
b1000011001100 ]
b1000011001100 m
b1000011001100 s
b1000011001100 t
1%
#1040
0%
#1050
b1000011010100 \
b1000011010100 o
b1000011010100 q
b1000011010100 [
b1000011010100 l
b1000011010100 n
b1000011010000 )
b1000011010000 1
b1000011010000 ?
b1000011010000 ]
b1000011010000 m
b1000011010000 s
b1000011010000 t
1%
#1060
0%
#1070
b1000011011000 \
b1000011011000 o
b1000011011000 q
b1000011011000 [
b1000011011000 l
b1000011011000 n
b1000011010100 )
b1000011010100 1
b1000011010100 ?
b1000011010100 ]
b1000011010100 m
b1000011010100 s
b1000011010100 t
1%
#1080
0%
#1090
b1000011011100 \
b1000011011100 o
b1000011011100 q
b1000011011100 [
b1000011011100 l
b1000011011100 n
b1000011011000 )
b1000011011000 1
b1000011011000 ?
b1000011011000 ]
b1000011011000 m
b1000011011000 s
b1000011011000 t
1%
#1100
0%
#1110
b1000011100000 \
b1000011100000 o
b1000011100000 q
b1000011100000 [
b1000011100000 l
b1000011100000 n
b1000011011100 )
b1000011011100 1
b1000011011100 ?
b1000011011100 ]
b1000011011100 m
b1000011011100 s
b1000011011100 t
1%
#1120
0%
#1130
b1000011100100 \
b1000011100100 o
b1000011100100 q
b1000011100100 [
b1000011100100 l
b1000011100100 n
b1000011100000 )
b1000011100000 1
b1000011100000 ?
b1000011100000 ]
b1000011100000 m
b1000011100000 s
b1000011100000 t
1%
#1140
0%
#1150
b1000011101000 \
b1000011101000 o
b1000011101000 q
b1000011101000 [
b1000011101000 l
b1000011101000 n
b1000011100100 )
b1000011100100 1
b1000011100100 ?
b1000011100100 ]
b1000011100100 m
b1000011100100 s
b1000011100100 t
1%
#1160
0%
#1170
b1000011101100 \
b1000011101100 o
b1000011101100 q
b1000011101100 [
b1000011101100 l
b1000011101100 n
b1000011101000 )
b1000011101000 1
b1000011101000 ?
b1000011101000 ]
b1000011101000 m
b1000011101000 s
b1000011101000 t
1%
#1180
0%
#1190
b1000011110000 \
b1000011110000 o
b1000011110000 q
b1000011110000 [
b1000011110000 l
b1000011110000 n
b1000011101100 )
b1000011101100 1
b1000011101100 ?
b1000011101100 ]
b1000011101100 m
b1000011101100 s
b1000011101100 t
1%
#1200
0%
#1210
b1000011110100 \
b1000011110100 o
b1000011110100 q
b1000011110100 [
b1000011110100 l
b1000011110100 n
b1000011110000 )
b1000011110000 1
b1000011110000 ?
b1000011110000 ]
b1000011110000 m
b1000011110000 s
b1000011110000 t
1%
#1220
0%
#1230
b1000011111000 \
b1000011111000 o
b1000011111000 q
b1000011111000 [
b1000011111000 l
b1000011111000 n
b1000011110100 )
b1000011110100 1
b1000011110100 ?
b1000011110100 ]
b1000011110100 m
b1000011110100 s
b1000011110100 t
1%
#1240
0%
#1250
b1000011111100 \
b1000011111100 o
b1000011111100 q
b1000011111100 [
b1000011111100 l
b1000011111100 n
b1000011111000 )
b1000011111000 1
b1000011111000 ?
b1000011111000 ]
b1000011111000 m
b1000011111000 s
b1000011111000 t
1%
#1260
0%
#1270
b1000100000000 \
b1000100000000 o
b1000100000000 q
b1000100000000 [
b1000100000000 l
b1000100000000 n
b1000011111100 )
b1000011111100 1
b1000011111100 ?
b1000011111100 ]
b1000011111100 m
b1000011111100 s
b1000011111100 t
1%
#1280
0%
#1290
b1000100000100 \
b1000100000100 o
b1000100000100 q
b1000100000100 [
b1000100000100 l
b1000100000100 n
b1000100000000 )
b1000100000000 1
b1000100000000 ?
b1000100000000 ]
b1000100000000 m
b1000100000000 s
b1000100000000 t
1%
#1300
0%
#1310
b1000100001000 \
b1000100001000 o
b1000100001000 q
b1000100001000 [
b1000100001000 l
b1000100001000 n
b1000100000100 )
b1000100000100 1
b1000100000100 ?
b1000100000100 ]
b1000100000100 m
b1000100000100 s
b1000100000100 t
1%
#1320
0%
#1330
b1000100001100 \
b1000100001100 o
b1000100001100 q
b1000100001100 [
b1000100001100 l
b1000100001100 n
b1000100001000 )
b1000100001000 1
b1000100001000 ?
b1000100001000 ]
b1000100001000 m
b1000100001000 s
b1000100001000 t
1%
#1340
0%
#1350
b1000100010000 \
b1000100010000 o
b1000100010000 q
b1000100010000 [
b1000100010000 l
b1000100010000 n
b1000100001100 )
b1000100001100 1
b1000100001100 ?
b1000100001100 ]
b1000100001100 m
b1000100001100 s
b1000100001100 t
1%
#1360
0%
#1370
b1000100010100 \
b1000100010100 o
b1000100010100 q
b1000100010100 [
b1000100010100 l
b1000100010100 n
b1000100010000 )
b1000100010000 1
b1000100010000 ?
b1000100010000 ]
b1000100010000 m
b1000100010000 s
b1000100010000 t
1%
#1380
0%
#1390
b1000100011000 \
b1000100011000 o
b1000100011000 q
b1000100011000 [
b1000100011000 l
b1000100011000 n
b1000100010100 )
b1000100010100 1
b1000100010100 ?
b1000100010100 ]
b1000100010100 m
b1000100010100 s
b1000100010100 t
1%
#1400
0%
#1410
b1000100011100 \
b1000100011100 o
b1000100011100 q
b1000100011100 [
b1000100011100 l
b1000100011100 n
b1000100011000 )
b1000100011000 1
b1000100011000 ?
b1000100011000 ]
b1000100011000 m
b1000100011000 s
b1000100011000 t
1%
#1420
0%
#1430
b1000100100000 \
b1000100100000 o
b1000100100000 q
b1000100100000 [
b1000100100000 l
b1000100100000 n
b1000100011100 )
b1000100011100 1
b1000100011100 ?
b1000100011100 ]
b1000100011100 m
b1000100011100 s
b1000100011100 t
1%
#1440
0%
#1450
b1000100100100 \
b1000100100100 o
b1000100100100 q
b1000100100100 [
b1000100100100 l
b1000100100100 n
b1000100100000 )
b1000100100000 1
b1000100100000 ?
b1000100100000 ]
b1000100100000 m
b1000100100000 s
b1000100100000 t
1%
#1460
0%
#1470
b1000100101000 \
b1000100101000 o
b1000100101000 q
b1000100101000 [
b1000100101000 l
b1000100101000 n
b1000100100100 )
b1000100100100 1
b1000100100100 ?
b1000100100100 ]
b1000100100100 m
b1000100100100 s
b1000100100100 t
1%
#1480
0%
#1490
b1000100101100 \
b1000100101100 o
b1000100101100 q
b1000100101100 [
b1000100101100 l
b1000100101100 n
b1000100101000 )
b1000100101000 1
b1000100101000 ?
b1000100101000 ]
b1000100101000 m
b1000100101000 s
b1000100101000 t
1%
#1500
0%
#1510
b1000100110000 \
b1000100110000 o
b1000100110000 q
b1000100110000 [
b1000100110000 l
b1000100110000 n
b1000100101100 )
b1000100101100 1
b1000100101100 ?
b1000100101100 ]
b1000100101100 m
b1000100101100 s
b1000100101100 t
1%
#1520
0%
#1530
b1000100110100 \
b1000100110100 o
b1000100110100 q
b1000100110100 [
b1000100110100 l
b1000100110100 n
b1000100110000 )
b1000100110000 1
b1000100110000 ?
b1000100110000 ]
b1000100110000 m
b1000100110000 s
b1000100110000 t
1%
#1540
0%
#1550
b1000100111000 \
b1000100111000 o
b1000100111000 q
b1000100111000 [
b1000100111000 l
b1000100111000 n
b1000100110100 )
b1000100110100 1
b1000100110100 ?
b1000100110100 ]
b1000100110100 m
b1000100110100 s
b1000100110100 t
1%
#1560
0%
#1570
b1000100111100 \
b1000100111100 o
b1000100111100 q
b1000100111100 [
b1000100111100 l
b1000100111100 n
b1000100111000 )
b1000100111000 1
b1000100111000 ?
b1000100111000 ]
b1000100111000 m
b1000100111000 s
b1000100111000 t
1%
#1580
0%
#1590
b1000101000000 \
b1000101000000 o
b1000101000000 q
b1000101000000 [
b1000101000000 l
b1000101000000 n
b1000100111100 )
b1000100111100 1
b1000100111100 ?
b1000100111100 ]
b1000100111100 m
b1000100111100 s
b1000100111100 t
1%
#1600
0%
